{
    "artists": {
        "href": "https://api.spotify.com/v1/search?offset=0&limit=1&query=My%20Chemical%20Romance&type=artist",
        "items": [
            {
                "external_urls": {
                    "spotify": "https://open.spotify.com/artist/7FBcuc1gsnv6Y1nwFtNRCb"
                },
                "followers": {
                    "href": null,
                    "total": 9535053
                },
                "genres": [
                    "emo",
                    "pop punk",
                    "emo pop"
                ],
                "href": "https://api.spotify.com/v1/artists/7FBcuc1gsnv6Y1nwFtNRCb",
                "id": "7FBcuc1gsnv6Y1nwFtNRCb",
                "images": [
                    {
                        "height": 640,
                        "url": "https://i.scdn.co/image/ab6761610000e5eb9c00ad0308287b38b8fdabc2",
                        "width": 640
                    },
                    {
                        "height": 320,
                        "url": "https://i.scdn.co/image/ab676161000051749c00ad0308287b38b8fdabc2",
                        "width": 320
                    },
                    {
                        "height": 160,
                        "url": "https://i.scdn.co/image/ab6761610000f1789c00ad0308287b38b8fdabc2",
                        "width": 160
                    }
                ],
                "name": "My Chemical Romance",
                "popularity": 79,
                "type": "artist",
                "uri": "spotify:artist:7FBcuc1gsnv6Y1nwFtNRCb"
            }
        ],
        "limit": 1,
        "next": "https://api.spotify.com/v1/search?offset=1&limit=1&query=My%20Chemical%20Romance&type=artist",
        "offset": 0,
        "previous": null,
        "total": 802
    }
}